<svg width="16" height="16" viewBox="0 0 16 16" fill="none" xmlns="http://www.w3.org/2000/svg">
<path fill-rule="evenodd" clip-rule="evenodd" d="M0.659794 10.7397V10.5205H15.1753C15.1753 10.7397 15.1753 10.7397 15.1753 10.9589V12.0548C14.9553 12.274 14.9553 12.274 14.9553 12.4932V12.7123C14.9553 12.7123 14.7354 13.1507 14.5155 13.3699L14.2955 13.8082C14.2955 14.0274 14.2955 13.8082 14.0756 14.0274L13.8557 14.2466C13.6357 14.4658 13.6357 14.4658 13.4158 14.6849C13.1959 14.6849 12.9759 14.9041 12.756 14.9041C12.756 15.1233 12.5361 15.1233 12.3162 15.1233H11.6564L4.39863 15.3425C4.39863 15.3425 4.39863 15.3425 4.17869 15.1233H3.73883H3.5189C3.5189 15.1233 3.29897 15.1233 3.07904 14.9041L2.41924 14.4658C2.19931 14.4658 2.19931 14.4658 1.97938 14.2466C1.97938 14.2466 1.97938 14.2466 1.75945 14.0274C1.75945 14.0274 1.75945 14.0274 1.75945 13.8082C1.53952 13.8082 1.53952 13.8082 1.53952 13.8082C1.31959 13.589 1.09966 13.1507 1.09966 12.9315C1.09966 12.7123 1.09966 12.7123 1.09966 12.7123L0.879725 12.4932C0.879725 12.274 0.879725 12.274 0.879725 12.0548C0.879725 11.8356 0.879725 11.6164 0.879725 11.3973V11.1781L0.659794 10.7397ZM9.89691 9.86301C9.89691 9.86301 9.01718 9.86301 8.79725 9.86301C8.57732 9.86301 8.13746 9.86301 7.91753 9.86301C7.69759 9.86301 7.47766 9.86301 7.25773 9.86301C7.0378 9.86301 6.81787 9.86301 6.81787 9.86301C6.59794 9.86301 6.37801 9.86301 6.15808 9.86301C5.93814 9.86301 5.93814 9.86301 5.71821 9.86301C4.83849 9.86301 4.17869 9.86301 3.5189 9.86301C3.29897 9.86301 3.07904 9.86301 3.07904 9.86301C2.85911 9.86301 2.63918 9.86301 2.41924 9.86301C2.19931 9.86301 1.97938 9.86301 1.97938 9.86301C1.75945 9.86301 1.31959 9.86301 1.31959 9.86301L1.53952 9.42466L1.75945 9.20548L1.97938 8.9863C2.19931 8.76712 2.63918 8.54795 2.85911 8.54795C2.85911 8.54795 2.85911 8.54795 3.07904 8.54795C3.29897 8.54795 3.5189 8.76712 3.73883 8.54795V8.32877H3.95876V8.10959C4.39863 7.89041 4.83849 7.89041 5.27835 7.89041C5.49828 8.10959 5.71821 8.10959 5.93814 8.32877C6.15808 8.32877 6.15808 8.32877 6.37801 8.54795C6.59794 8.76712 6.59794 8.76712 6.59794 8.9863C6.81787 8.9863 6.81787 9.20548 7.0378 9.20548L7.25773 8.9863C7.25773 8.9863 7.47766 8.9863 7.47766 8.76712H7.69759C7.69759 8.76712 7.69759 8.76712 7.91753 8.76712C8.13746 8.54795 8.13746 8.54795 8.35739 8.54795H8.57732C8.57732 8.76712 8.79725 8.76712 8.79725 8.76712H9.01718C9.23711 8.76712 9.23711 8.9863 9.45705 8.9863L9.67698 9.20548C9.67698 9.42466 9.67698 9.42466 9.89691 9.64384V9.86301ZM11.2165 9.86301V9.64384H11.4364L11.6564 9.86301C11.8763 9.64384 12.0962 9.64384 12.0962 9.42466C12.3162 9.42466 12.3162 9.42466 12.5361 9.42466L12.756 9.20548C12.9759 9.20548 13.1959 9.20548 13.4158 9.42466C13.6357 9.42466 13.6357 9.42466 13.6357 9.42466C13.8557 9.42466 13.8557 9.42466 13.8557 9.64384C14.0756 9.64384 14.2955 9.86301 14.2955 9.86301C14.2955 9.86301 12.9759 9.86301 12.756 9.86301C12.5361 9.86301 12.3162 9.86301 12.0962 9.86301H11.4364H11.2165ZM4.39863 0.657534H4.61856V0.876712L4.83849 1.31507V1.75342V1.9726C5.05842 2.19178 5.05842 2.41096 5.05842 2.41096C5.05842 2.41096 5.05842 2.41096 5.05842 2.63014C5.27835 2.63014 5.27835 2.84932 5.27835 2.84932L5.49828 3.06849C5.49828 3.28767 5.71821 3.28767 5.71821 3.50685C5.93814 3.50685 5.93814 3.50685 5.93814 3.50685V3.72603H6.15808L6.59794 3.94521C6.81787 3.94521 7.0378 3.94521 7.25773 3.94521H7.47766C7.69759 3.72603 7.91753 3.72603 8.13746 3.72603V3.50685C8.35739 3.28767 8.35739 3.28767 8.57732 3.06849C8.57732 2.84932 8.79725 2.63014 8.79725 2.41096C9.01718 2.19178 9.01718 1.9726 9.01718 1.75342C9.01718 1.75342 9.01718 1.53425 9.23711 1.53425V0.876712C9.23711 0.657534 9.23711 0.657534 9.23711 0.657534C9.45704 0.657534 9.67698 0.657534 9.67698 0.657534C9.67698 0.657534 9.67698 1.75342 9.67698 1.9726V2.19178V2.63014C9.67698 2.84932 9.67698 3.06849 9.67698 3.06849C9.89691 3.50685 9.89691 3.72603 10.1168 4.16438V4.38356C10.1168 4.38356 10.1168 4.60274 10.3368 4.60274C10.3368 4.82192 10.5567 4.82192 10.5567 5.0411C10.5567 5.47945 10.5567 5.69863 10.5567 6.13699V9.86301V9.64384L10.3368 9.42466V9.20548V8.9863C10.1168 8.76712 9.89691 8.54795 9.89691 8.54795C9.67698 8.54795 9.67698 8.54795 9.67698 8.32877C9.45704 8.32877 9.23711 8.10959 8.79725 8.10959C8.79725 7.89041 8.57732 7.89041 8.35739 7.89041C8.13746 7.89041 8.13746 7.89041 7.91753 7.89041C7.91753 7.89041 7.69759 8.10959 7.47766 8.10959C7.25773 8.10959 7.25773 8.32877 7.25773 8.32877C7.0378 8.32877 7.0378 8.32877 7.0378 8.10959H6.81787C6.81787 7.89041 6.81787 7.89041 6.59794 7.89041L6.37801 7.67123H6.15808L5.93814 7.45206C5.71821 7.45206 5.27835 7.23288 5.05842 7.23288H4.83849C4.61856 7.23288 4.17869 7.45206 3.95876 7.45206C3.73883 7.45206 3.73883 7.67123 3.5189 7.67123V7.89041C3.29897 7.89041 3.29897 7.89041 3.29897 7.89041V5.69863C3.29897 5.69863 3.29897 5.26027 3.29897 5.0411C3.29897 5.0411 3.5189 4.82192 3.73883 4.60274C3.73883 4.60274 3.73883 4.38356 3.95876 4.16438V3.94521C3.95876 3.94521 3.95876 3.72603 4.17869 3.72603C4.17869 3.50685 4.17869 3.50685 4.17869 3.28767C4.17869 3.28767 4.17869 3.28767 4.17869 3.06849C4.17869 3.06849 4.17869 2.84932 4.17869 2.63014C4.39863 2.63014 4.39863 1.9726 4.39863 1.75342V1.31507C4.39863 1.09589 4.39863 0.876712 4.39863 0.657534ZM10.1168 0H8.79725C8.79725 0 8.79725 0 8.79725 0.219178C8.57732 0.219178 8.57732 0.219178 8.57732 0.219178C8.57732 0.438356 8.57732 0.657534 8.57732 0.876712C8.57732 1.09589 8.57732 1.09589 8.57732 1.09589C8.57732 1.31507 8.35739 1.53425 8.35739 1.53425V1.9726L8.13746 2.41096C8.13746 2.63014 7.91753 2.84932 7.69759 3.06849C7.47766 3.06849 7.47766 3.28767 7.25773 3.28767C7.0378 3.28767 7.0378 3.28767 6.81787 3.28767C6.81787 3.28767 6.81787 3.28767 6.59794 3.28767L6.37801 3.06849L6.15808 2.84932C6.15808 2.84932 6.15808 2.84932 5.93814 2.84932L5.71821 2.41096C5.71821 2.19178 5.49828 1.9726 5.49828 1.75342V1.53425V1.31507V1.09589C5.49828 1.09589 5.49828 1.09589 5.49828 0.876712C5.27835 0.876712 5.27835 0.657534 5.27835 0.657534C5.27835 0.438356 5.27835 0.438356 5.27835 0.219178C5.27835 0 5.05842 0 5.05842 0H3.95876C3.95876 0 3.95876 0 3.73883 0V0.219178C3.73883 0.219178 3.73883 0.219178 3.73883 0.438356C3.73883 0.657534 3.73883 1.75342 3.73883 1.9726C3.73883 2.19178 3.73883 2.19178 3.73883 2.41096L3.5189 2.63014V2.84932V3.06849C3.5189 3.28767 3.5189 3.50685 3.29897 3.72603V3.94521C3.07904 4.38356 3.07904 4.38356 2.85911 4.60274L2.63918 4.82192C2.63918 5.0411 2.63918 5.47945 2.63918 5.69863C2.63918 5.91781 2.63918 6.57534 2.63918 6.79452C2.63918 7.0137 2.63918 7.89041 2.63918 7.89041C2.63918 8.10959 2.41924 8.10959 2.41924 8.10959H2.19931C2.19931 8.10959 2.19931 8.10959 1.97938 8.10959C1.97938 8.32877 1.97938 8.32877 1.75945 8.32877H1.53952V8.54795C1.31959 8.54795 1.31959 8.76712 1.31959 8.76712H1.09966C1.09966 8.9863 1.09966 8.9863 1.09966 8.9863L0.879725 9.64384C0.659794 9.64384 0.659794 9.64384 0.659794 9.64384C0.659794 9.86301 0.659794 9.86301 0.659794 9.86301C0.659794 10.0822 0.219931 9.86301 0 10.0822C0 10.3014 0 10.5205 0 10.5205C0 10.7397 0 10.7397 0 10.7397C0 10.9589 0.219931 11.1781 0.219931 11.1781C0.219931 11.3973 0.219931 12.274 0.219931 12.274C0.219931 12.4932 0.219931 12.4932 0.219931 12.4932L0.439863 12.7123V12.9315C0.439863 13.1507 0.659794 13.3699 0.659794 13.589C0.659794 13.589 0.659794 13.589 0.879725 13.8082C0.879725 14.0274 0.879725 14.0274 0.879725 14.0274H1.09966C1.09966 14.0274 1.09966 14.0274 1.09966 14.2466L1.31959 14.4658C1.31959 14.4658 1.31959 14.4658 1.31959 14.6849C1.53952 14.6849 1.53952 14.6849 1.53952 14.6849C1.53952 14.6849 1.53952 14.9041 1.75945 14.9041L1.97938 15.1233H2.19931C2.19931 15.3425 2.41924 15.3425 2.41924 15.3425H2.63918C2.63918 15.5616 2.63918 15.5616 2.63918 15.5616C2.63918 15.5616 2.63918 15.5616 2.85911 15.5616C2.85911 15.5616 3.07904 15.5616 3.29897 15.7808H3.5189C3.73883 15.7808 3.73883 15.7808 3.95876 15.7808C4.17869 16 4.39863 16 4.61856 16C6.59794 16 8.57732 16 10.5567 16C10.9966 16 11.4364 16 11.6564 16C11.8763 16 12.0962 15.7808 12.0962 15.7808H12.5361H12.756C12.9759 15.5616 12.9759 15.5616 12.9759 15.5616H13.1959C13.1959 15.5616 13.4158 15.5616 13.4158 15.3425H13.6357L13.8557 15.1233C14.0756 14.9041 14.2955 14.6849 14.5155 14.4658H14.7354C14.7354 14.2466 14.9553 14.2466 14.9553 14.0274C15.1753 13.8082 15.1753 13.589 15.3952 13.589C15.3952 13.3699 15.6151 12.9315 15.6151 12.7123V12.4932C15.6151 12.4932 15.6151 12.4932 15.6151 12.274C15.8351 12.0548 15.8351 11.8356 15.8351 11.6164C15.8351 11.3973 15.8351 11.1781 15.8351 10.9589C15.8351 10.7397 15.8351 10.7397 15.8351 10.7397C15.8351 10.5205 15.8351 10.5205 15.8351 10.5205C16.055 10.3014 16.055 10.3014 15.8351 10.0822C15.8351 9.86301 15.6151 9.86301 15.3952 9.86301H15.1753C14.9553 9.86301 14.9553 9.86301 14.9553 9.86301C14.9553 9.64384 14.9553 9.64384 14.7354 9.42466C14.7354 9.42466 14.7354 9.20548 14.5155 9.20548L14.2955 8.9863C14.0756 8.9863 13.8557 8.76712 13.8557 8.76712C13.6357 8.76712 13.6357 8.76712 13.6357 8.76712H13.4158C13.4158 8.76712 13.4158 8.76712 13.4158 8.54795H13.1959H12.9759H12.5361C12.5361 8.76712 12.0962 8.76712 12.0962 8.76712C11.8763 8.76712 11.8763 8.9863 11.6564 8.9863V8.76712C11.2165 8.54795 11.2165 8.54795 11.2165 8.32877V5.47945C11.2165 5.0411 11.4364 4.82192 10.9966 4.60274C10.9966 4.60274 10.9966 4.38356 10.7766 4.38356V4.16438L10.5567 3.94521C10.5567 3.94521 10.5567 3.94521 10.5567 3.72603C10.5567 3.72603 10.3368 3.28767 10.3368 3.06849V2.41096C10.3368 2.19178 10.3368 1.9726 10.3368 1.75342C10.3368 1.53425 10.3368 1.31507 10.3368 1.09589C10.3368 0.876712 10.3368 0.438356 10.3368 0.219178C10.3368 0.219178 10.3368 0.219178 10.1168 0ZM2.41924 13.8082C2.63918 13.8082 2.63918 14.0274 2.85911 14.0274L3.07904 14.2466H3.29897L3.73883 14.4658H3.95876C3.95876 14.4658 3.95876 14.4658 4.17869 14.4658C4.17869 14.4658 4.61856 14.6849 4.61856 14.4658C4.83849 14.4658 4.83849 14.2466 4.83849 14.2466C4.83849 14.0274 4.83849 14.0274 4.83849 14.0274C4.83849 14.0274 4.83849 14.0274 4.61856 14.0274C4.61856 13.8082 4.39863 13.8082 4.39863 13.8082C4.17869 13.8082 3.95876 13.8082 3.95876 13.8082H3.73883C3.5189 13.8082 3.29897 13.589 3.29897 13.589C3.29897 13.589 3.29897 13.589 3.07904 13.589C3.07904 13.3699 3.07904 13.3699 2.85911 13.3699L2.63918 12.9315C2.41924 12.7123 2.41924 12.7123 2.41924 12.274C2.19931 12.274 2.19931 12.0548 2.19931 11.8356C2.19931 11.6164 1.97938 11.6164 1.97938 11.6164C1.75945 11.6164 1.53952 11.8356 1.53952 12.0548C1.53952 12.0548 1.53952 12.0548 1.53952 12.274C1.53952 12.4932 1.75945 12.4932 1.75945 12.7123C1.75945 12.7123 1.97938 13.1507 1.97938 13.3699C2.19931 13.3699 2.19931 13.589 2.41924 13.8082ZM13.6357 3.94521C13.6357 3.94521 13.8557 3.94521 13.8557 4.16438C14.0756 4.38356 13.8557 4.60274 13.6357 4.60274C13.4158 4.60274 13.1959 4.38356 13.4158 4.16438C13.4158 3.94521 13.4158 3.94521 13.6357 3.94521ZM12.5361 4.38356C12.756 4.38356 12.756 4.60274 12.756 4.82192C12.756 4.82192 12.9759 5.0411 13.1959 5.0411C13.1959 5.26027 13.4158 5.26027 13.6357 5.26027C13.8557 5.26027 13.8557 5.26027 14.0756 5.26027C14.0756 5.0411 14.2955 5.0411 14.2955 5.0411L14.5155 4.82192C14.5155 4.60274 14.7354 4.38356 14.7354 4.38356C14.5155 4.16438 14.5155 3.94521 14.5155 3.94521C14.5155 3.72603 14.2955 3.50685 14.0756 3.50685V3.28767C13.8557 3.28767 13.8557 3.28767 13.8557 3.28767C13.6357 3.28767 13.4158 3.28767 13.4158 3.28767C13.1959 3.28767 13.1959 3.50685 12.9759 3.50685C12.9759 3.50685 12.9759 3.50685 12.9759 3.72603H12.756V3.94521C12.756 3.94521 12.5361 4.16438 12.5361 4.38356ZM13.1959 2.63014V2.41096V2.19178C12.9759 2.19178 12.756 1.9726 12.756 1.9726C12.5361 1.9726 12.3162 1.9726 12.3162 2.19178C12.0962 2.19178 11.8763 2.63014 12.0962 2.84932C12.0962 3.06849 12.3162 3.28767 12.5361 3.28767C12.756 3.28767 12.756 3.28767 12.9759 3.28767L13.1959 3.06849C13.1959 3.06849 13.1959 2.84932 13.1959 2.63014ZM12.5361 6.35616H12.756C12.756 6.57534 12.756 6.57534 12.756 6.57534C12.9759 6.57534 13.1959 6.57534 13.1959 6.35616C13.1959 5.91781 12.756 5.91781 12.756 6.13699L12.5361 6.35616Z" fill="#2B2A29"/>
</svg>
