<svg width="18" height="18" viewBox="0 0 18 18" fill="none" xmlns="http://www.w3.org/2000/svg">
<path fill-rule="evenodd" clip-rule="evenodd" d="M9.1267 7.2178V10.7822C9.1267 10.7822 12.633 10.7773 14.0607 10.7773C13.2874 13.0884 12.0854 14.3466 9.1267 14.3466C6.13241 14.3466 3.79537 11.9528 3.79537 8.99965C3.79537 6.0472 6.13241 3.65341 9.1267 3.65341C10.7096 3.65341 11.7322 4.20227 12.67 4.96702C13.4205 4.2268 13.3579 4.12095 15.2677 2.34191C13.6463 0.886717 11.4915 0 9.1267 0C4.08661 0 0 4.02913 0 8.99965C0 13.9702 4.08661 18 9.1267 18C16.6605 18 18.5019 11.5308 17.8917 7.2178H9.1267Z" fill="black"/>
</svg>
