<svg width="19" height="16" viewBox="0 0 19 16" fill="none" xmlns="http://www.w3.org/2000/svg">
<path fill-rule="evenodd" clip-rule="evenodd" d="M16.7618 2.52954C17.5669 2.03033 18.1848 1.23877 18.4747 0.295826C17.7208 0.759208 16.8878 1.09432 15.9989 1.27575C15.2897 0.489961 14.2759 0 13.154 0C11.0016 0 9.25744 1.80846 9.25744 4.03871C9.25744 4.35534 9.28978 4.66387 9.35669 4.95854C6.1181 4.78983 3.2464 3.18359 1.32265 0.738408C0.98697 1.33699 0.795152 2.03033 0.795152 2.7699C0.795152 4.17045 1.48324 5.4069 2.52932 6.1326C1.8903 6.1118 1.28919 5.92807 0.76281 5.62762V5.67731C0.76281 7.63484 2.10553 9.26766 3.891 9.63744C3.56313 9.7322 3.21964 9.77958 2.86277 9.77958C2.61184 9.77958 2.3665 9.75531 2.13007 9.70793C2.62523 11.3119 4.06498 12.4813 5.77126 12.5125C4.43634 13.5964 2.75571 14.2412 0.930093 14.2412C0.615601 14.2412 0.304455 14.2239 0 14.1858C1.72524 15.3309 3.7739 16 5.97535 16C13.1462 16 17.0651 9.84544 17.0651 4.50787C17.0651 4.33223 17.0629 4.15774 17.0551 3.98556C17.8168 3.41586 18.4792 2.70403 19 1.89398C18.3008 2.21522 17.5491 2.43247 16.7618 2.52954Z" fill="#2F2F37"/>
</svg>
