<svg width="20" height="15" viewBox="0 0 20 15" fill="none" xmlns="http://www.w3.org/2000/svg">
<path d="M19 2.9999H6C5.4 2.9999 5 2.5999 5 1.9999C5 1.3999 5.4 0.999901 6 0.999901H19C19.6 0.999901 20 1.3999 20 1.9999C20 2.5999 19.6 2.9999 19 2.9999Z" fill="#A8A8A8"/>
<path d="M19 8.9999H6C5.4 8.9999 5 8.5999 5 7.9999C5 7.3999 5.4 6.9999 6 6.9999H19C19.6 6.9999 20 7.3999 20 7.9999C20 8.5999 19.6 8.9999 19 8.9999Z" fill="#A8A8A8"/>
<path d="M19 14.9999H6C5.4 14.9999 5 14.5999 5 13.9999C5 13.3999 5.4 12.9999 6 12.9999H19C19.6 12.9999 20 13.3999 20 13.9999C20 14.5999 19.6 14.9999 19 14.9999Z" fill="#A8A8A8"/>
<path d="M1 2.9999C0.9 2.9999 0.9 2.9999 0.8 2.9999C0.7 2.9999 0.7 2.9999 0.6 2.8999C0.5 2.8999 0.5 2.7999 0.4 2.7999C0.3 2.7999 0.3 2.6999 0.3 2.6999C0.2 2.5999 0.0999999 2.4999 0.0999999 2.3999C-9.68575e-08 2.2999 0 2.0999 0 1.9999C0 1.8999 -9.68575e-08 1.6999 0.0999999 1.5999C0.2 1.4999 0.2 1.3999 0.3 1.2999C0.6 0.999902 1 0.899901 1.4 1.0999C1.5 1.1999 1.6 1.1999 1.7 1.2999C1.9 1.4999 2 1.6999 2 1.9999C2 2.2999 1.9 2.4999 1.7 2.6999C1.5 2.8999 1.3 2.9999 1 2.9999Z" fill="#A8A8A8"/>
<path d="M1 8.9999C0.7 8.9999 0.5 8.8999 0.3 8.6999C0.0999999 8.4999 0 8.2999 0 7.9999C0 7.8999 0 7.8999 0 7.7999C0 7.6999 -9.68575e-08 7.6999 0.0999999 7.5999C0.0999999 7.4999 0.2 7.4999 0.2 7.3999C0.2 7.2999 0.3 7.2999 0.3 7.2999C0.4 7.1999 0.5 7.0999 0.6 7.0999C1 6.8999 1.4 6.9999 1.7 7.2999L1.8 7.3999C1.8 7.4999 1.9 7.4999 1.9 7.5999C1.9 7.6999 1.9 7.6999 2 7.7999C2 7.8999 2 7.8999 2 7.9999C2 8.2999 1.9 8.4999 1.7 8.6999C1.5 8.8999 1.3 8.9999 1 8.9999Z" fill="#A8A8A8"/>
<path d="M1 14.9999C0.7 14.9999 0.5 14.8999 0.3 14.6999C0.0999999 14.4999 0 14.2999 0 13.9999C0 13.8999 -9.68575e-08 13.6999 0.0999999 13.5999C0.2 13.4999 0.2 13.3999 0.3 13.2999C0.7 12.8999 1.3 12.8999 1.7 13.2999C1.9 13.4999 2 13.6999 2 13.9999C2 14.2999 1.9 14.4999 1.7 14.6999C1.5 14.8999 1.3 14.9999 1 14.9999Z" fill="#A8A8A8"/>
</svg>
