<svg width="24" height="20" viewBox="0 0 24 20" fill="none" xmlns="http://www.w3.org/2000/svg">
<path d="M13.1429 0C7.63036 0 3.14761 4.48748 3.14761 10L1.16839 7.05243C0.97472 6.75957 0.577932 6.67926 0.285065 6.87293C-0.00780272 7.0666 -0.088105 7.46339 0.105565 7.75626L2.97755 12.0784C3.08147 12.2343 3.2468 12.3335 3.43103 12.3571C3.45937 12.3618 3.48299 12.3618 3.51133 12.3618C3.66721 12.3618 3.81837 12.3051 3.93646 12.1965L7.92796 8.6018C8.18776 8.36561 8.21138 7.9641 7.97519 7.69957C7.73901 7.43977 7.3375 7.41615 7.07297 7.65234L4.423 10.0472C4.423 5.18658 8.33419 1.27539 13.1429 1.27539C17.9516 1.27539 21.8675 5.18658 21.8675 10C21.8675 14.8134 17.9563 18.7246 13.1476 18.7246C10.8188 18.7246 8.62706 17.8177 6.98322 16.1691C6.73287 15.9188 6.33136 15.9188 6.081 16.1691C5.83065 16.4195 5.83065 16.821 6.081 17.0713C7.97047 18.9608 10.4787 20 13.1476 20C18.6554 20 23.1429 15.5172 23.1429 10C23.1429 4.48276 18.6554 0 13.1429 0Z" fill="#33333A"/>
</svg>
